{
    "aedesOpt": {
        "concurrency": 100,
        "connectTimeout": 30000
    },
    "persistence": {
        "url": "mongodb://127.0.0.1/",
        "broker_database": "aedes",
        "me_database": "mqemitter"
    },
    "sslPaths":{
        "privateKey": "/home/ubuntu/ssl/private.key",
        "certificate": "/home/ubuntu/ssl/certificate.crt",
        "caBundle": "/home/ubuntu/ssl/ca_bundle.crt"
    },
    "serverOpt":{
        "rejectUnauthorized": true,
        "url": "mqtt://elevate.altumview.com:1883"
    }
}
